{
  "compilerOptions": {
    "allowSyntheticDefaultImports": true,
    "strictFunctionTypes": true,
    "alwaysStrict": false,
    "baseUrl": "./",
    "forceConsistentCasingInFileNames": true,
    "moduleResolution": "node",
    "lib": [
      "dom",
      "es2015",
      "es2015.promise"
    ],
    "target": "es2016",
    "module": "es2015",
    "noImplicitAny": true,
    "noImplicitReturns": true,
    "paths": {
      "~/": ["./"],
      "~/mixins/*": ["./mixins/*"],
      "~/assets/*": ["./assets/*"],
      "~/components/*": ["./components/*"],
      "~/middleware/*": ["./middleware/*"],
      "~/pages/*": ["./pages/*"],
      "~/plugins/*": ["./plugins/*"],
      "~/static/*": ["./static/*"],
      "~/store/*": ["./store/*"],
      "~/utils/*": ["./utils/*"]
    }
  },
  "types": [
    "vue-typescript-import-dts"
  ],
  "include": [
    "**/*",
    "**/*.vue"
  ],
  "exclude": ["node_modules", "dist", "_nuxt"]
}
