<?xml version="1.0" encoding="utf-8"?>
<!-- Generator: Adobe Illustrator 21.0.0, SVG Export Plug-In . SVG Version: 6.00 Build 0)  -->
<svg version="1.1" id="Layer_1" xmlns="http://www.w3.org/2000/svg" xmlns:xlink="http://www.w3.org/1999/xlink" x="0px" y="0px"
	 viewBox="0 0 500 431" style="enable-background:new 0 0 500 431;" xml:space="preserve">
<style type="text/css">
	.st0{fill:#231F20;}
	.st1{fill:#EA3E43;}
	.st2{fill:#1D508E;}
	.st3{fill:#FFFFFF;}
</style>
<g>
	<path class="st0" d="M70.4,275.5c0,1.9,0.1,3,0.2,3.2c0.2,0.5,0.5,0.8,1,1c0.5,0.2,1,0.2,1.5,0.1l0.4,1.1l-9.4,3.6l-0.4-1
		c1.7-1.7,2.9-3.3,3.7-4.8c1.4-2.7,1.7-5.3,0.8-7.7c-1-2.7-2.9-4.1-5.7-4.4c-2.7-0.2-6.1,0.4-10,1.9c-2.8,1.1-5.1,2.3-6.7,3.7
		c-3,2.6-3.9,5.5-2.6,8.9c0.8,2,2.1,3.7,3.9,5.1c1.1,0.8,2.6,1.5,4.6,2.4l-0.5,1.6c-2.3-0.9-4.1-1.8-5.4-2.7
		c-2.2-1.6-3.8-3.7-4.8-6.2c-1.5-4-1.6-7.7-0.3-11.3c1.5-3.9,4.4-6.8,8.8-8.5c4.3-1.7,8.4-1.6,12.2,0.2c3.5,1.7,6.1,4.5,7.6,8.3
		C70,271.7,70.4,273.5,70.4,275.5"/>
	<path class="st0" d="M67.4,307.1l6.3-8.8l-0.2-0.3l-10.5,2L67.4,307.1z M51.2,298.2c0.6,0.8,1.4,1.3,2.5,1.4c0.7,0.1,2-0.1,4-0.4
		l25-4.4l0.6,1l-14.1,20.1c-1.6,2.2-2.5,3.8-2.9,4.6c-0.3,0.8-0.2,1.6,0.3,2.5l-0.9,0.6l-7.4-11.8l0.9-0.6c0.8,1.2,1.3,1.9,1.8,2.1
		c0.4,0.3,0.9,0.2,1.5-0.2c0.3-0.2,0.7-0.5,1.1-1.1c0.3-0.3,0.6-0.7,0.9-1.3l1.6-2.3l-5.1-8.2c-1.8,0.4-2.9,0.6-3.5,0.7
		c-1.1,0.3-1.9,0.5-2.3,0.8c-0.5,0.3-0.7,0.9-0.5,1.8c0.1,0.5,0.4,1.2,1,2l-0.9,0.6l-4.7-7.4L51.2,298.2z"/>
	<path class="st0" d="M71.8,329c0.8,0.8,1.5,1.3,2.1,1.5c0.9,0.3,1.8,0,2.7-0.8l15.2-14.2c0.9-0.9,1.3-1.7,1-2.6
		c-0.1-0.5-0.6-1.2-1.4-2.2l0.8-0.7l10.2,11l-0.8,0.7c-1.2-1.2-2.2-1.9-2.9-2.1c-0.7-0.1-1.7,0.4-2.9,1.6L81,335
		c-0.7,0.6-1,1.2-0.9,1.8c0.1,0.6,0.7,1.4,1.7,2.4c1.8,1.9,3.7,3.1,5.7,3.6c2,0.5,4.7,0.1,8-1.2l0.8,0.9l-8.3,5.4l-17-18.2L71.8,329
		z"/>
	<path class="st0" d="M96.2,353.6c0.9,0.8,1.7,1.2,2.3,1.4c0.9,0.2,1.8-0.2,2.7-1.2l13.4-15.9c0.8-1,1-1.9,0.7-2.7
		c-0.2-0.5-0.8-1.2-1.8-2.1l0.7-0.8l11.5,9.7l-0.7,0.8c-1-0.8-1.9-1.3-2.4-1.4c-0.9-0.2-1.8,0.2-2.6,1.2l-13.4,15.9
		c-0.8,0.9-1,1.7-0.8,2.5c0.2,0.7,0.9,1.5,1.9,2.4l-0.7,0.8l-11.5-9.7L96.2,353.6z"/>
	<path class="st0" d="M115.9,369.6c0.9,0.5,1.7,0.8,2.2,0.8c0.9,0.1,1.7-0.4,2.3-1.4l10.9-18.2c0.6-0.9,0.6-1.8,0.2-2.6
		c-0.3-0.5-0.9-1-1.8-1.7l0.6-0.9l11.3,6.8c4.5,2.7,7.3,6,8.2,9.9c0.9,3.5,0.2,7.1-2.1,10.8c-2,3.3-4.8,5.5-8.4,6.5
		c-4,1.1-8.1,0.4-12.3-2.1l-11.6-7L115.9,369.6z M125.8,374.5c0.1,0.5,0.5,0.9,1.3,1.5c2.2,1.3,4.4,1.6,6.8,0.9
		c2.3-0.7,4.8-3.2,7.4-7.6c1.6-2.6,2.5-5.1,2.9-7.4c0.6-3.7-0.6-6.5-3.5-8.2c-1-0.6-1.7-0.7-2.2-0.5c-0.3,0.1-0.7,0.6-1.2,1.4
		l-10.9,18.1C126,373.3,125.8,374,125.8,374.5"/>
	<path class="st0" d="M165.2,384.5l-0.1-10.8l-0.3-0.1l-7.3,7.8L165.2,384.5z M146.9,386.8c1,0.3,1.9,0.2,2.8-0.4
		c0.6-0.4,1.6-1.2,3-2.7l17.7-18.2l1.1,0.4l0.4,24.5c0,2.7,0.2,4.6,0.4,5.5c0.2,0.9,0.8,1.5,1.7,1.8l-0.4,1l-12.9-5.2l0.4-1
		c1.3,0.5,2.2,0.7,2.7,0.7c0.5,0,0.8-0.3,1.2-1c0.1-0.3,0.2-0.8,0.2-1.5c0-0.4,0-0.9,0-1.6l0-2.8l-8.9-3.6c-1.2,1.3-2,2.2-2.4,2.6
		c-0.8,0.9-1.2,1.5-1.4,2c-0.2,0.6,0,1.1,0.6,1.7c0.4,0.3,1,0.7,1.9,1.1l-0.4,1l-8.1-3.3L146.9,386.8z"/>
	<path class="st0" d="M180,400c1.1,0.2,1.9,0.2,2.4,0.1c0.9-0.2,1.5-0.9,1.8-2l4.8-20.6c0.2-1.1,0-1.9-0.7-2.5
		c-0.4-0.4-1.1-0.7-2.2-1.1l0.2-1.1l12.8,3c5.2,1.2,8.8,3.5,10.9,6.8c1.9,3.1,2.3,6.7,1.4,11c-0.9,3.8-2.8,6.7-5.9,8.8
		c-3.4,2.3-7.6,2.9-12.4,1.8l-13.2-3.1L180,400z M191,401.5c0.2,0.4,0.8,0.8,1.7,1c2.5,0.6,4.7,0.2,6.7-1.2c2-1.4,3.6-4.6,4.7-9.5
		c0.7-3,0.8-5.6,0.5-7.9c-0.6-3.7-2.5-6-5.8-6.7c-1.1-0.2-1.8-0.2-2.3,0.2c-0.3,0.2-0.5,0.8-0.7,1.7l-4.8,20.6
		C190.8,400.4,190.8,401.1,191,401.5"/>
	<path class="st0" d="M236,411.4l0-1.1c1.2-0.1,2.1-0.2,2.6-0.5c0.8-0.5,1.2-1.3,1.2-2.5l-0.4-20.8c0-1.3-0.4-2.1-1.3-2.5
		c-0.5-0.2-1.3-0.4-2.6-0.5l0-1.1l24.8-0.4l0.1,8.7l-1,0c-0.6-2.8-1.5-4.6-2.9-5.6c-1.3-1-3.7-1.4-7.2-1.4c-1.3,0-2.1,0.2-2.5,0.5
		c-0.3,0.3-0.5,0.8-0.5,1.6l0.2,10c2.4,0,4.1-0.5,4.9-1.4c0.9-0.9,1.5-2.6,1.9-5.1l1.1,0l0.2,14.5l-1.1,0c-0.3-2.4-1-4.1-2-5.1
		c-0.9-1-2.6-1.5-5.1-1.4l0.2,10.4c0,0.9,0.3,1.5,0.7,1.8c0.5,0.3,1.4,0.4,2.9,0.4c2.7,0,4.9-0.6,6.7-1.7c1.7-1.1,3.2-3.1,4.5-6
		l1.2,0l-1.6,9L236,411.4z"/>
	<path class="st0" d="M270.7,409.2c1.6-0.2,2.6-0.7,2.9-1.3c0.4-0.6,0.5-1.5,0.4-2.6l-2.5-20.2c-1.5-1.3-2.4-2.1-2.7-2.3
		c-0.3-0.2-0.8-0.3-1.3-0.3l-0.1-1.1l9-1.1l16.9,16.2l0.2,0l-1.6-12.7c-0.2-1.4-0.5-2.4-1.2-3c-0.6-0.6-1.7-0.8-3.3-0.7l-0.1-1.1
		l9.2-1.1l0.1,1.1c-1.3,0.4-2.2,0.8-2.6,1.2c-0.4,0.4-0.5,1.3-0.4,2.6l3.1,25.1l-1.2,0.2l-21.6-20.5l-0.3,0l2.1,16.7
		c0.2,1.3,0.4,2.2,0.9,2.7c0.7,0.8,1.9,1.1,3.7,1l0.1,1.1l-9.7,1.2L270.7,409.2z"/>
	<path class="st0" d="M333.1,366.6c1.9,0,3-0.1,3.2-0.1c0.5-0.2,0.8-0.5,1-1c0.2-0.5,0.2-1,0.1-1.5l1.1-0.4l3.4,9.4l-1,0.4
		c-1.7-1.7-3.3-3-4.7-3.8c-2.7-1.5-5.2-1.8-7.6-0.9c-2.7,1-4.2,2.9-4.5,5.6c-0.3,2.7,0.3,6.1,1.7,10c1.1,2.9,2.2,5.1,3.6,6.8
		c2.5,3,5.4,3.9,8.9,2.7c2.1-0.7,3.8-2,5.2-3.8c0.8-1,1.6-2.6,2.5-4.5l1.6,0.5c-0.9,2.3-1.9,4.1-2.8,5.3c-1.6,2.2-3.7,3.7-6.3,4.7
		c-4,1.5-7.8,1.5-11.3,0.1c-3.9-1.5-6.7-4.5-8.3-8.9c-1.6-4.4-1.5-8.5,0.4-12.2c1.8-3.5,4.6-6,8.5-7.4
		C329.3,366.9,331.2,366.6,333.1,366.6"/>
	<path class="st0" d="M364,372.5l-8.3-6.9l-0.3,0.2l1.2,10.6L364,372.5z M354,388.1c0.9-0.5,1.4-1.3,1.5-2.4c0.1-0.7,0-2-0.2-4
		l-2.6-25.3l1.1-0.6l19.1,15.4c2.1,1.7,3.6,2.8,4.4,3.2c0.8,0.4,1.6,0.3,2.5-0.1l0.5,1l-12.3,6.5l-0.5-1c1.2-0.7,1.9-1.2,2.3-1.6
		c0.3-0.4,0.3-0.9-0.1-1.5c-0.2-0.3-0.5-0.7-1-1.2c-0.3-0.3-0.7-0.6-1.2-1l-2.2-1.8l-8.5,4.5c0.3,1.8,0.4,3,0.5,3.5
		c0.2,1.1,0.4,1.9,0.6,2.4c0.3,0.5,0.8,0.7,1.7,0.6c0.5-0.1,1.2-0.4,2.1-0.8l0.5,1l-7.8,4.1L354,388.1z"/>
	<path class="st0" d="M385.3,371c1.1-0.9,1.7-1.7,1.9-2.4c0.1-0.7-0.3-1.7-1.2-3l-11.4-15.2c-1-1.3-1.9-2-2.7-2
		c-0.5,0-1.4,0.4-2.7,1.2l-0.7-0.9l11-8.3c2.3-1.7,4.3-2.9,6.1-3.5c3.5-1.1,6.2-0.4,8.1,2.1c1.4,1.9,1.8,3.8,1.3,6
		c-0.4,1.6-1.2,2.9-2.2,4.1l14.3,4.6c0.4,0.1,0.7,0.1,1,0.1c0.2-0.1,0.5-0.2,0.9-0.4l0.6,0.8l-7,5.3l-15.2-5.4l-0.9,0.7l5.1,6.7
		c0.9,1.2,1.7,1.9,2.5,2c0.7,0.1,1.7-0.3,2.9-1.1l0.7,0.9l-11.6,8.8L385.3,371z M389.7,349c0.5-1.3,0-3.1-1.7-5.3
		c-1-1.3-2-2.2-2.9-2.7c-1.6-0.8-3.3-0.6-5,0.7c-0.9,0.7-1.4,1.3-1.5,1.7c-0.1,0.4,0,0.9,0.4,1.4l6.6,8.7
		C387.9,351.9,389.2,350.4,389.7,349"/>
	<path class="st0" d="M413.4,349.3c1-1.2,1.5-2.2,1.4-2.9c-0.1-0.7-0.5-1.5-1.4-2.2l-14.9-13.9c-2,0-3.1-0.1-3.5,0
		c-0.4,0-0.8,0.2-1.2,0.6l-0.8-0.7l6.2-6.7l23.3,1.5l0.1-0.2l-9.3-8.7c-1.1-1-2-1.5-2.8-1.5c-0.8,0-1.8,0.5-3,1.6l-0.8-0.7l6.3-6.8
		l0.8,0.7c-0.8,1.1-1.1,2-1.2,2.6c0,0.6,0.5,1.3,1.4,2.2l18.5,17.3l-0.8,0.9l-29.7-1.8l-0.2,0.2l12.3,11.5c0.9,0.9,1.7,1.4,2.4,1.5
		c1,0.2,2.2-0.4,3.4-1.6l0.8,0.7l-6.6,7.1L413.4,349.3z"/>
	<path class="st0" d="M440.2,320.7l-0.9-0.6c0.6-1.1,0.9-1.9,0.9-2.5c0-0.9-0.5-1.7-1.6-2.3l-18-10.4c-1.1-0.6-2-0.7-2.8-0.2
		c-0.5,0.3-1,0.9-1.7,2l-0.9-0.5l12.4-21.4l7.5,4.3l-0.5,0.9c-2.7-0.9-4.8-1.1-6.3-0.4c-1.5,0.6-3.1,2.4-4.9,5.4
		c-0.6,1.1-1,1.9-0.9,2.4c0,0.4,0.4,0.8,1.1,1.3l8.6,5c1.2-2.1,1.7-3.7,1.3-5c-0.4-1.2-1.5-2.6-3.4-4.2l0.5-0.9l12.6,7.3l-0.5,0.9
		c-2.3-1-4.1-1.3-5.4-0.9c-1.3,0.3-2.6,1.5-3.8,3.6l9,5.2c0.8,0.4,1.4,0.6,2,0.3c0.5-0.2,1.1-1,1.9-2.3c1.4-2.4,2-4.5,2-6.6
		c-0.1-2-1-4.3-2.9-7l0.6-1l6.9,6L440.2,320.7z"/>
	<path class="st0" d="M448.8,285.4l0.4-1.2c3.3,0.4,5.8,0.1,7.7-0.9c1.9-1,3.1-2.5,3.8-4.4c0.6-1.8,0.6-3.3-0.1-4.4
		c-0.7-1.1-1.5-1.8-2.6-2.2c-1.2-0.4-2.3-0.4-3.4,0.2c-0.7,0.4-1.7,1.2-3.1,2.6l-2.2,2.2c-2.2,2.2-4.1,3.6-5.8,4.2
		c-1.6,0.6-3.4,0.6-5.3,0c-2-0.7-3.6-2-4.8-4c-1.2-2-1.3-4.5-0.3-7.4c0.5-1.5,1.2-2.8,2.2-4.1c0.9-1.2,1.4-2,1.5-2.2
		c0.1-0.4,0.1-0.8-0.1-1.1c-0.2-0.2-0.5-0.5-0.9-0.8l0.4-1.2l8.8,3l-0.4,1.1c-2.2-0.2-4.3,0.2-6.3,1c-1.9,0.8-3.2,2.2-3.9,4.2
		c-0.5,1.4-0.5,2.6,0,3.7c0.5,1,1.2,1.7,2.3,2.1c1.3,0.4,2.4,0.4,3.3-0.2c0.9-0.5,2.4-1.8,4.6-3.9l2.6-2.6c1.1-1.1,2.2-1.9,3.4-2.5
		c2-1,4.2-1.1,6.4-0.3c2,0.7,3.7,2.2,5,4.5c1.2,2.2,1.2,5.1,0,8.7c-0.3,0.8-0.6,1.6-1.1,2.4c-0.4,0.8-0.9,1.5-1.6,2.2l-0.6,0.7
		c-0.1,0.2-0.2,0.3-0.3,0.5c-0.1,0.2-0.2,0.3-0.2,0.4c-0.2,0.4-0.1,0.7,0.1,1c0.2,0.2,0.5,0.5,0.9,0.8l-0.4,1.2L448.8,285.4z"/>
	<path class="st0" d="M114.5,60.5l-12.5,12.1c0,0,6.9-3.8,11.4,0.6l14.2,14.7c3,3.1,10,10.6,0,20.3c-8.2,7.9-14.9,1.7-17.6-1.1
		L94.3,91c-4.1-4.3,0.1-11,0.1-11l-19,18.2c0,0,6.2-2.9,10.1,1.1l15.6,16.2c5,5.2,8.1,5.5,12.4,4.9c6.4-0.8,12-5.7,14.5-8.1
		c3.4-3.3,7.5-9,7.8-14.4c0.3-4.5-3.1-9.6-5.8-12.4l-14.9-15.4C111.3,66.4,114.5,60.5,114.5,60.5"/>
	<path class="st0" d="M141.1,90.2c0-3,2.4-5.4,5.4-5.4c3,0,5.4,2.4,5.4,5.4c0,3-2.4,5.4-5.4,5.4C143.5,95.6,141.1,93.1,141.1,90.2"
		/>
	<path class="st0" d="M175.7,40.2l-6.6-13c0,0-1.7,3.4-3.2,4.2c-2,1-6.1,0.7-11.6,3.4c-12.9,6.6-10.8,15.8-9,19.4
		c1.4,2.7,4,7.9,18.1,6.9l5.5-0.4c5.3-0.4,9.3-0.6,11.3,3.4c0.4,0.8,3.1,6.9-5.1,11c-10.1,5-22.4-4.7-22.4-4.7l7.5,14.8
		c0,0,1.5-3.3,3-4.1c2.1-1.1,6.2-0.6,12.6-3.9c12.5-6.3,13.1-15.8,10.5-21.1c-3.3-6.5-10.2-7.3-13.1-7.2L161,49.7
		c-7,0.4-8.9-0.3-10.6-3.5c-2-3.9,0.9-7.6,4.4-9.4C163.8,32.2,175.7,40.2,175.7,40.2"/>
	<path class="st0" d="M193.4,64.8c0-3,2.4-5.4,5.4-5.4c3,0,5.4,2.4,5.4,5.4c0,3-2.4,5.4-5.4,5.4C195.9,70.2,193.4,67.8,193.4,64.8"
		/>
	<path class="st0" d="M391.1,115.2l25.7-25.7c7.4,6.6,4,17.4,4,17.4l8.2-8.2l-28.8-28.8l-8.5,8c0,0,10.5-3.6,17.6,4.3l-25.7,25.7
		c-5,4.8-10.5,1-10.5,1l16.9,16.9C390.2,125.7,386.1,120,391.1,115.2"/>
	<path class="st0" d="M236.9,22.2l11.6,26.6l9.3-25c0.4-1.3,0.7-1.2,0.7-2.7c-0.1-3.9-4.8-5.4-4.8-5.4h7.1l0.1,0l13.2,0
		c0,0-6.7,3.1-5.5,9.8l5.6,28.7c1.5,5.9,7.1,8,7.1,8l-24.4,0c0,0,7.6-4,7.6-8.6l-5.6-26.2L245,62.4l-17-35L226.3,52
		c0,8.5,5.6,10.4,5.6,10.4l-17,0c0,0,0.2-0.2,0.5-0.5c2.5-1.6,5-2.8,6-11.6l4-29c0-3.6-6.6-5.3-6.6-5.3l14.5,0l8.6,0
		c0,0-5.2,2-5.2,5.6L236.9,22.2z"/>
	<path class="st0" d="M304.6,28l-10.8,31.4c-1.4,4-8.4,4.1-8.4,4.1L324.5,77L334,65c0,0-11.1,9.2-24.7,4.3c-4.6-1.7-6.2-2.8-5.3-5.7
		l6.1-17.7c1,0.3,4.7,1.5,5.5,2.1c5.4,3.4,6,9.6,6,9.6l6-17.3c0,0-4.6,5.1-10.9,4.8c-1-0.1-4.9-1-5.8-1.3l4.5-13
		c1-2.8,2.8-2.5,6.8-1.3c17,5,13.5,17,13.5,17l4.5-13l-39.6-13.8C300.4,19.6,306,23.7,304.6,28"/>
	<path class="st0" d="M369.1,91.9l8.1-38.8l-7.3-2.4l0.9,2.5l-30.7,20.9c-7.1,5.2-11.5,3.8-11.5,3.8l12.8,8.6c0,0-3.1-5-1.7-7.1
		c0.6-0.9,6.2-5.1,10.6-8.1l11.7,7.9c-1,3.4-3.4,11.5-4.4,13c-1.3,1.9-7.2,0.4-7.2,0.4l19.2,12.9
		C369.6,105.6,366.9,101.9,369.1,91.9 M353.3,69.4l14.3-10.4l-4.4,17.2L353.3,69.4z"/>
	<path class="st1" d="M389.9,145.6c4,7.6-5.9,20.4-7.3,20.9c-3.3,1.2-1.4,7,0.6,8.3c1.6,1,3.5,2.6,6.7,3.9c1.1,1.5,1,2,0.3,3
		c-2.2,3.7-4,6.3-3.6,8.9h-48.8c2.4-5.1,10.8-5.7,10.4-13.1c-2-3.2-6.3-1.2-9.4-1.6c-0.4-4.7,2.7-8.8,6.3-8.9c2.9,0.7,5,0.2,6.6-0.9
		c0.1-3.1,0.8-5,4-7c3.9-0.5,5-2.6,6.6-3.2c-2.7-1.6-3.1-3.5-1.9-5.8C361.8,148.4,377.2,146.6,389.9,145.6"/>
	<path class="st1" d="M320.9,166.1c1,2.2-1.4,4.3,0.8,6.7c1.7,1.9,3.9,2.4,5.3,6c0,1.9,0.8,0.8-1.1,4.8c0,2,3.1,3.7,2.5,6.9
		c-3.9,0-11.4,0.1-18.7,0.1c-0.5-0.3,3.9-3.4,2.8-10c-0.2-4.5-1-6.1-7.2-7.3c-0.1-2,1.4-7.5,3.5-11.3
		C313.3,163.9,317.4,162.2,320.9,166.1"/>
	<path class="st1" d="M224.2,144.5h59.2c1.5,3-8.3,5.6-7.5,12.3c1.2,2.6,3.4,4,5.1,4.2c5.6,0.5,3.3-4.7,5.4-9.4l1.1-0.1
		c0.3,3.8,4,7.5,7.5,7.6c1.9,0.6,2.2,0.5,2.1,1.9c-1.4,5.6-1.6,8.5-0.3,9.8c-1.6,1.9-0.1,6.3,1.9,9.5c2.6,5.6-7.5,9.9-16,9.9h-58.7
		l3.6-45.5H224.2z"/>
	<path class="st1" d="M226.4,211.6l137.1-0.4c-3,13.5,18.9,10.6,13.3,23.6c-8.6,6.3-9.8,15.4-16.4,19.9L227.7,255l-0.4-42.5
		L226.4,211.6z"/>
	<path class="st1" d="M228.6,277.3l117.4-0.2c0.8,3.5,0.9,13.9,2.2,15.1c0.7,0.9,6.3,2,9.5,2.4c1.7,0.6-0.1,6.4,2.3,9
		c2.8,2,8.1,7.3,8,11.4c-0.1,2.6-0.6,7.4-5.2,9.1c-5.7,1.1-8-3.7-11.4-7.7c-1.4-1.7-5-2.8-6.5-4.4c-2-3.5-0.7-6.2-3-9.8
		c-1.6-1.8-1.5-0.9-5.2-2c-0.4-0.9-0.3-2.3-0.7-3.1c-6-13.1-8.7-14.9-12.7-13.4c-1.8,1.2-3.1,2-5.5,2.2c-4.1,0.4-9.6-0.5-12.5-1.4
		c-2,0.3-1.5,4.8-3.2,6.1c-4.2,5.3-9.5,4.4-7.1,10.1c-1.6,2-3.4,3-4.9,2.6c-3.1-2.9-5.2-4.2-8.4-3.4c-3.7,1.6-5.3,1.2-6.6,1.8
		c-0.9,0.4-1.2,0.9-1.8,1c-4.6,1-11.6,0.6-16-0.6c-2.3-0.6-2.8-2.3-4.5-2.5c-2.4,0-0.8,3.5-2.9,3.7c-4.9,0.2-5.9,2.7-5.9,5.9
		l0.2,9.4c-2.2,3.3-6.5-1.9-12.4-5.5l-3.1-35.5V277.3z"/>
	<path class="st2" d="M231.7,312.8c-3.6-2.2-4.2-3.6-17.8-4.8c-4.9-0.5-2.7-4.3-2.7-4.3l10.7-8.6H208l-5.5-12.6l-5.9,12.6h-8.5
		l0-0.1c-8.7-0.8-18-5.2-25-10.9l4.4-2.7l14.3,8.7l-5.6-15.1l10.7-8.6H173l-5.5-12.6l-5.9,12.6h-13.3l10,8.3l-4.6,12.2
		c-2.4,1-5.1,1.2-8,0.9c-1.5-2.6-1.5-6-3.6-5.7c-23.6,5.1-22.6,3.1-27.4-6.9l3.6-6.3c2.2-6.1-15.1,2-13.9-7.8
		c0.6-11.5-5.8-18.3-11.8-27.5c-0.7-4.6-2.5,1.7-5-14.2l9.5-5.9l14.3,8.7l-5.6-15.1l10.7-8.6h-13.9l-5.5-12.6l-4.9,9.7
		c-2.7-9.4-3.2-12.1-4.9-18.2l16.9-12.2l-0.3-21.1h127.3l0.5,169.4L231.7,312.8z"/>
	<polygon class="st3" points="211.1,173.9 216.7,189.1 202.4,180.4 188.2,189 193.3,173.7 183.3,165.4 196.6,165.4 202.5,152.7 
		208,165.4 221.9,165.4 	"/>
	<polygon class="st3" points="140.7,173.9 146.3,189.1 132,180.4 117.8,189 122.9,173.7 113,165.4 126.2,165.4 132.1,152.7 
		137.6,165.4 151.5,165.4 	"/>
	<polygon class="st3" points="176.2,207.8 181.8,223 167.5,214.2 153.2,222.8 158.4,207.5 148.4,199.2 161.7,199.2 167.5,186.6 
		173,199.2 186.9,199.2 	"/>
	<polygon class="st3" points="211.1,240.6 216.7,255.7 202.4,247 188.2,255.6 193.3,240.3 183.3,232 196.6,232 202.5,219.4 208,232 
		221.9,232 	"/>
	<polygon class="st3" points="140.7,240.6 146.3,255.7 132,247 117.8,255.6 122.9,240.3 113,232 126.2,232 132.1,219.4 137.6,232 
		151.5,232 	"/>
	<path class="st0" d="M456.1,52.6c10.3,0,18.6-8.4,18.6-18.7c0-10.3-8.3-18.6-18.6-18.6c-10.4,0-18.7,8.4-18.7,18.6
		C437.4,44.2,445.7,52.6,456.1,52.6 M456.1,49.3c-8.6,0-15.5-6.9-15.5-15.5c0-8.5,6.9-15.4,15.5-15.4c8.5,0,15.4,6.9,15.4,15.4
		C471.5,42.4,464.6,49.3,456.1,49.3 M455,35.1c1.2,0.1,2.3,0,3.2,0.9c1,1,1,2.8,1.2,4.7c0.2,1.3,0.5,2.7,0.7,3.9h4.4
		c-0.8-2-1-4.3-1.3-6.4c-0.3-2.4-0.7-3.7-3.7-4.3v-0.1c2.9-0.6,4.5-2.6,4.5-5.1c0-5-4.2-6.1-8.2-6.1h-7.1v22h3.4v-9.5H455z
		 M452.1,31.7V26h4.1c2.7,0,3.5,0.9,3.5,2.5c0,1.7-0.7,3-4,3.1H452.1z"/>
	<path class="st0" d="M63.2,245.5c-1.8-9.8-2.7-19.8-2.6-30.1c0.4-33.3,11.2-64.2,29.7-90.4l-5.1-4.5c-20,27.9-31.7,61.1-31.7,96.7
		c0,10.2,1,20.3,2.8,30.1L63.2,245.5z"/>
	<path class="st0" d="M68.1,105l5.1,4.7c0,0-23.6,25.4-33.1,66.3c-10.3,44.5,0.2,75.4,0.2,75.4l-6.8,1.9c0,0-10.5-36.6-0.1-79.7
		C43,133.6,68.1,105,68.1,105"/>
	<path class="st0" d="M440.7,246.4c1.8-9.8,2.7-19.8,2.6-30.1c-0.4-33.3-11.2-64.2-29.7-90.4l5.1-4.5c20,27.9,31.7,61.1,31.7,96.7
		c0,10.2-1,20.3-2.8,30.1L440.7,246.4z"/>
	<path class="st0" d="M435.7,105.9l-5.1,4.7c0,0,23.6,25.4,33.1,66.3c10.3,44.5-0.2,75.4-0.2,75.4l6.8,1.9c0,0,10.5-36.6,0.1-79.7
		C460.8,134.5,435.7,105.9,435.7,105.9"/>
</g>
</svg>
